*** Life<FredkinCell> 5x5 ***

Generation = 0, Population = 8.
0---0
-00-0
-0--0
0----
-----

Generation = 1, Population = 9.
--001
--1--
-1-01
----0
0----

Generation = 2, Population = 12.
-0--2
--20-
0-01-
00--1
-0--0

Generation = 3, Population = 9.
0----
0----
11---
----2
-1001

Generation = 4, Population = 10.
10---
-----
-20-1
0-0-3
02---

Generation = 5, Population = 13.
210--
0-2-0
-3--2
1-1-4
-3--1

*** Life<FredkinCell> 5x5 ***

Generation = 0, Population = 10.
0-00-
00---
0----
0-0-0
----0

Generation = 1, Population = 16.
10110
11-0-
--0-0
1---1
0-001

Generation = 2, Population = 11.
-1-21
---10
---01
20---
1-1--

Generation = 3, Population = 14.
1----
-1021
000--
-1-01
20-0-

Generation = 4, Population = 13.
--121
1-1-2
1--0-
2-0-2
3--1-

Generation = 5, Population = 10.
11---
2-2-3
-00-1
-----
40---

*** Life<FredkinCell> 5x5 ***

Generation = 0, Population = 8.
-----
00---
-0-0-
-0---
00-0-

Generation = 1, Population = 9.
00---
1-00-
----0
--0--
1---0

Generation = 2, Population = 13.
-1-0-
2011-
0----
00-0-
-000-

Generation = 3, Population = 12.
-2010
-1--0
-00--
--010
----0

Generation = 4, Population = 7.
0----
2-1-1
0----
-----
--0-1

Generation = 5, Population = 12.
120-0
-----
100-0
0-0-0
-0---

*** Life<FredkinCell> 5x5 ***

Generation = 0, Population = 9.
0--00
0---0
00---
0-0--
-----

Generation = 1, Population = 13.
1001-
----1
11--0
10-0-
0-0--

Generation = 2, Population = 10.
2--2-
--0-2
--0-1
2-0--
10---

Generation = 3, Population = 15.
-0---
00103
11--2
30100
-1---

Generation = 4, Population = 10.
-1-20
-----
2200-
-----
-2-00

Generation = 5, Population = 15.
2--31
0-1-3
3--12
3-1-0
1--11

*** Life<FredkinCell> 5x5 ***

Generation = 0, Population = 9.
-----
00-0-
--000
--0-0
0----

Generation = 1, Population = 17.
00-0-
1101-
0--1-
00101
-00-0

Generation = 2, Population = 14.
--010
22-20
-00--
-121-
---01

Generation = 3, Population = 11.
0-12-
3----
-1-10
0-3--
-0--2

Generation = 4, Population = 12.
1-230
4-0-0
0-021
-----
---0-

Generation = 5, Population = 7.
2----
-----
1----
0-3-1
--0-2

*** Life<FredkinCell> 5x5 ***

Generation = 0, Population = 8.
0-0-0
---0-
---00
-----
-00--

Generation = 1, Population = 14.
---0-
0--10
--0-1
-0000
0110-

Generation = 2, Population = 10.
0-01-
-0---
0-1--
---1-
122--

Generation = 3, Population = 13.
-0120
0-01-
-0---
-00-0
2-3--

Generation = 4, Population = 12.
-1231
-----
-1101
-----
-2400

Generation = 5, Population = 9.
02--2
-----
02--2
-----
23--1

*** Life<FredkinCell> 5x5 ***

Generation = 0, Population = 10.
-00--
0--0-
--0--
-00--
-00-0

Generation = 1, Population = 11.
-11--
--0-0
0-1--
0-100
0----

Generation = 2, Population = 12.
02-00
0----
1----
----1
10000

Generation = 3, Population = 12.
-3-11
---00
20--0
-01-2
2----

Generation = 4, Population = 10.
0----
0-0-1
3----
0-2-3
--0-0

Generation = 5, Population = 12.
131-1
-----
-0---
1-3-4
201-1

*** Life<FredkinCell> 5x5 ***

Generation = 0, Population = 8.
0-00-
00-0-
-----
0----
---0-

Generation = 1, Population = 15.
101-0
-1010
-0-0-
-0-0-
0-0-0

Generation = 2, Population = 14.
21-01
-212-
0-0--
-101-
-0-0-

Generation = 3, Population = 13.
3-1-2
0-2--
---0-
--1-0
01010

Generation = 4, Population = 12.
4-2--
1-3-0
0-0--
0-2-1
1-1--

Generation = 5, Population = 9.
5-302
-----
---0-
-----
2-210

*** Life<FredkinCell> 5x5 ***

Generation = 0, Population = 9.
00-00
-----
-----
--00-
-000-

Generation = 1, Population = 15.
11-11
00-00
--00-
----0
011-0

Generation = 2, Population = 11.
-----
--01-
0-1-0
00--1
1-2-1

Generation = 3, Population = 17.
--01-
00-2-
10201
1100-
21--2

Generation = 4, Population = 9.
1-1-1
-----
2-3-2
2-1-1
-----

Generation = 5, Population = 9.
-----
-----
3-4-3
3-2-2
2-2-2

*** Life<FredkinCell> 5x5 ***

Generation = 0, Population = 8.
00---
---00
-0---
-0-0-
-0---

Generation = 1, Population = 19.
11000
0-011
010-0
0---0
0100-

Generation = 2, Population = 10.
--11-
--122
1--0-
-0--1
---1-

Generation = 3, Population = 10.
-1---
00--3
---10
--00-
-10--

Generation = 4, Population = 10.
-21-0
1-1-4
11---
-----
02---

Generation = 5, Population = 10.
-3--1
2-2-5
-2--0
-----
130--

*** Life<FredkinCell> 5x5 ***

Generation = 0, Population = 9.
00---
0-00-
0--0-
0----
0----

Generation = 1, Population = 12.
-1-0-
-01-0
-0-10
-0-0-
10---

Generation = 2, Population = 13.
020--
012-1
0-0--
---1-
2-00-

Generation = 3, Population = 15.
-3-00
123--
101-0
--020
--1-0

Generation = 4, Population = 15.
-4011
-----
-1211
0-1-1
-0201

Generation = 5, Population = 7.
05--2
-----
-23--
-----
-13--

*** Life<FredkinCell> 5x5 ***

Generation = 0, Population = 9.
-0---
---0-
-00-0
0----
000--

Generation = 1, Population = 11.
0-00-
-----
-110-
10--0
--10-

Generation = 2, Population = 12.
--110
00---
---1-
2-00-
0-21-

Generation = 3, Population = 14.
0-2-1
11--0
-1-20
3--10
1---0

Generation = 4, Population = 12.
10--2
-----
02--1
4-0-1
20--1

Generation = 5, Population = 10.
2121-
-----
-3-22
-----
-1-12

*** Life<FredkinCell> 5x5 ***

Generation = 0, Population = 9.
0----
-00--
-0-00
-00--
----0

Generation = 1, Population = 11.
--0--
--1-0
0--11
0-1--
-000-

Generation = 2, Population = 22.
-0100
00201
1002-
10200
-1110

Generation = 3, Population = 7.
--21-
-----
2--31
-----
--22-

Generation = 4, Population = 18.
-0320
0-2-1
-0042
1-2-0
-1330

Generation = 5, Population = 7.
-14--
-----
21--3
-----
-24--

*** Life<FredkinCell> 5x5 ***

Generation = 0, Population = 6.
-0---
---0-
--0--
0-0--
---0-

Generation = 1, Population = 11.
0-00-
-0--0
001--
--1--
0---0

Generation = 2, Population = 16.
-011-
010--
11-00
--200
-000-

Generation = 3, Population = 10.
--220
---00
-----
00---
011--

Generation = 4, Population = 10.
-033-
-----
11-00
-----
-220-

Generation = 5, Population = 18.
01-40
0-0-0
22-11
0-2-0
03-10

*** Life<FredkinCell> 5x5 ***

Generation = 0, Population = 8.
-00--
--0--
--0--
0-00-
----0

Generation = 1, Population = 9.
01-0-
---0-
00---
---1-
0-0--

Generation = 2, Population = 12.
12-10
--010
110--
-0--0
-----

Generation = 3, Population = 11.
230--
-0-2-
22---
-1-1-
-0--0

Generation = 4, Population = 12.
341--
0-0-0
330--
-----
010--

Generation = 5, Population = 7.
---10
-----
---00
-----
1-10-

*** Life<FredkinCell> 5x5 ***

Generation = 0, Population = 9.
-0-0-
0---0
----0
---0-
0--00

Generation = 1, Population = 10.
-----
----1
0---1
0-010
-00-1

Generation = 2, Population = 13.
----0
0--02
100--
10--1
-1-02

Generation = 3, Population = 11.
0---1
1--1-
211--
-1--2
-2-1-

Generation = 4, Population = 7.
10---
-----
-22-1
-----
03---

Generation = 5, Population = 15.
210--
1-0-2
233--
1-0-2
140--

*** Life<FredkinCell> 5x5 ***

Generation = 0, Population = 7.
----0
-0---
0---0
0----
---00

Generation = 1, Population = 12.
-0-0-
--0--
1--0-
10-0-
0-011

Generation = 2, Population = 16.
0-0-0
0--0-
2--10
210--
10122

Generation = 3, Population = 12.
1--0-
-0-10
----1
32-0-
-12-3

Generation = 4, Population = 10.
--01-
-----
2--12
4-0-0
--32-

Generation = 5, Population = 16.
-0120
0-0-0
30-2-
5-1-1
11-3-

*** Life<FredkinCell> 5x5 ***

Generation = 0, Population = 8.
0-0--
---00
-0---
00---
0----

Generation = 1, Population = 11.
----0
00-11
-1000
--0--
1----

Generation = 2, Population = 13.
00--1
1-0-2
--11-
0-1-0
-00--

Generation = 3, Population = 17.
-1-02
20113
-1220
-0-0-
-1-00

Generation = 4, Population = 13.
-20--
3-2-4
-23--
0-1-0
12--1

Generation = 5, Population = 13.
-3-02
-----
0342-
1-2-1
-3-02

*** Life<FredkinCell> 5x5 ***

Generation = 0, Population = 8.
---00
00---
-0-0-
----0
-0---

Generation = 1, Population = 12.
00011
1-0-0
-1---
-----
0-0-0

Generation = 2, Population = 10.
--1--
2-101
----0
000-0
-----

Generation = 3, Population = 12.
002-1
-----
-1---
1-1-1
000-0

Generation = 4, Population = 10.
1-3--
2-1-1
----0
2-2-2
----1

Generation = 5, Population = 12.
2-411
3-2-2
---0-
-----
0-002

*** Life<FredkinCell> 5x5 ***

Generation = 0, Population = 10.
-000-
-00--
0-0-0
-0---
--0--

Generation = 1, Population = 10.
0-110
--1-0
--1--
--0-0
---0-

Generation = 2, Population = 9.
-----
00-01
-0-0-
-010-
-----

Generation = 3, Population = 12.
00-10
1---2
--1--
0---0
-000-

Generation = 4, Population = 9.
-1-2-
2-1-3
-0-0-
-----
-1-1-

Generation = 5, Population = 4.
--1--
-----
--1--
-----
0---0

*** Life<FredkinCell> 5x5 ***

Generation = 0, Population = 6.
----0
-0-0-
-----
--000
-----

Generation = 1, Population = 11.
-0---
0----
-00-0
-01-1
--000

Generation = 2, Population = 8.
--0--
-00-0
----1
0-20-
-----

Generation = 3, Population = 14.
--100
01--1
00--2
--31-
0-00-

Generation = 4, Population = 4.
0-2--
-----
----3
-----
----0

Generation = 5, Population = 6.
---0-
0-0-1
---0-
-----
---0-

*** Life<FredkinCell> 5x5 ***

Generation = 0, Population = 7.
-0-0-
--0--
-----
----0
0--00

Generation = 1, Population = 10.
0-0-0
-----
--0-0
0---1
-001-

Generation = 2, Population = 7.
-----
0----
00--1
----2
-1-2-

Generation = 3, Population = 10.
0----
1---0
-1002
0---3
0----

Generation = 4, Population = 15.
10--0
2-0-1
02--3
1-0-4
11--0

Generation = 5, Population = 10.
-1-01
-----
1300-
-----
-2-21

*** Life<FredkinCell> 5x5 ***

Generation = 0, Population = 8.
----0
0----
-0---
-00--
-000-

Generation = 1, Population = 10.
0--0-
----0
-1---
01---
0-110

Generation = 2, Population = 13.
-00--
00---
-20-0
---00
102-1

Generation = 3, Population = 17.
--10-
110-0
--101
0-011
2-312

Generation = 4, Population = 13.
0--1-
2-1-1
--212
1-1-2
3--2-

Generation = 5, Population = 13.
10---
3-2-2
-23-3
2-2-3
40---

*** Life<FredkinCell> 5x5 ***

Generation = 0, Population = 9.
----0
000--
-0-0-
-----
00-0-

Generation = 1, Population = 15.
0000-
111-0
-10-0
0----
11--0

Generation = 2, Population = 14.
-111-
--201
0---1
100--
-200-

Generation = 3, Population = 12.
022--
1--1-
1---2
-1--0
--110

Generation = 4, Population = 4.
--3--
-----
2---3
-----
--2--

Generation = 5, Population = 12.
-2-1-
1-2-1
-1-0-
1-0-0
-2-1-

*** Life<FredkinCell> 5x5 ***

Generation = 0, Population = 9.
----0
0---0
--0--
0000-
----0

Generation = 1, Population = 15.
0--01
-0001
--1-0
1-11-
000--

Generation = 2, Population = 10.
-----
-1112
0---1
2022-
-----

Generation = 3, Population = 14.
-0001
-2---
10-02
---3-
0000-

Generation = 4, Population = 6.
0---2
-----
2---3
-----
1---0

Generation = 5, Population = 6.
-0-0-
-----
-0-0-
-----
-0-0-

*** Life<FredkinCell> 5x5 ***

Generation = 0, Population = 7.
-00--
-0--0
-0---
----0
-0---

Generation = 1, Population = 13.
0-100
0--0-
010--
---0-
0-0-0

Generation = 2, Population = 11.
1-211
--01-
--10-
-00--
---0-

Generation = 3, Population = 13.
---22
0012-
--2-0
01-0-
-0--0

Generation = 4, Population = 13.
10--3
1-2-0
-13--
1-0-0
-10--

Generation = 5, Population = 13.
-1-24
2-3-1
0240-
-----
-2-00

*** Life<FredkinCell> 5x5 ***

Generation = 0, Population = 9.
--0-0
----0
00--0
-----
--000

Generation = 1, Population = 18.
-0--1
0000-
11001
0000-
-01-1

Generation = 2, Population = 7.
-1---
--1-0
2---2
----0
---0-

Generation = 3, Population = 10.
0---1
0---1
-100-
0---1
--1--

Generation = 4, Population = 15.
11-02
1-1-2
22-12
-----
00-01

Generation = 5, Population = 10.
-201-
-----
-302-
-----
11-12

*** Life<FredkinCell> 5x5 ***

Generation = 0, Population = 9.
--00-
--0--
-----
0-000
-00--

Generation = 1, Population = 12.
-0-10
-01--
0--00
-0--1
-1--0

Generation = 2, Population = 16.
01021
--20-
-0-1-
-10--
02001

Generation = 3, Population = 18.
1-132
00-1-
01-20
-2-01
131-2

Generation = 4, Population = 18.
21243
1-2-0
-2-3-
0-0-2
24203

Generation = 5, Population = 10.
--3--
2-3-1
0---0
1-1-3
--3--

*** Life<FredkinCell> 5x5 ***

Generation = 0, Population = 7.
0----
-----
--00-
---00
0--0-

Generation = 1, Population = 12.
-0---
0-00-
-01--
0--11
-001-

Generation = 2, Population = 11.
---0-
---10
01-00
-00-2
-1---

Generation = 3, Population = 16.
--01-
0002-
1-1-1
-1113
02--0

Generation = 4, Population = 9.
0---0
-----
2---2
0-2-4
1---1

Generation = 5, Population = 12.
-0-1-
-----
31103
-----
22012

*** Life<FredkinCell> 5x5 ***

Generation = 0, Population = 8.
0----
-00--
0-00-
---0-
--0--

Generation = 1, Population = 10.
--0--
01---
-0--0
0-010
-0---

Generation = 2, Population = 10.
0--0-
1---0
01--1
--1--
---00

Generation = 3, Population = 10.
100--
----1
-2-02
0----
---11

Generation = 4, Population = 12.
2-100
1-0-2
---1-
-----
0-022

Generation = 5, Population = 10.
3----
2-1-3
0----
0-1-0
--1-3

*** Life<FredkinCell> 5x5 ***

Generation = 0, Population = 6.
0-0--
-----
--0--
-0---
--0-0

Generation = 1, Population = 6.
---0-
0----
---0-
0-0-0
-----

Generation = 2, Population = 8.
0-0-0
-0---
-----
---0-
0-0-0

Generation = 3, Population = 6.
-0---
----0
-0-0-
0----
---0-

Generation = 4, Population = 6.
0-0-0
-----
-----
-----
0-0-0

Generation = 5, Population = 6.
-----
0-0-0
-----
0-0-0
-----

*** Life<FredkinCell> 5x5 ***

Generation = 0, Population = 10.
00---
0--00
-----
00--0
0--0-

Generation = 1, Population = 14.
-1000
1-011
-0-0-
-10--
1-0--

Generation = 2, Population = 8.
-211-
-----
-1-1-
-----
-010-

Generation = 3, Population = 12.
03-20
--0--
0---0
--0--
11-10

Generation = 4, Population = 12.
14131
-----
-1-1-
-----
22121

Generation = 5, Population = 12.
2---2
1-0-1
0---0
0-0-0
3---2

*** Life<FredkinCell> 5x5 ***

Generation = 0, Population = 9.
0-0-0
--00-
----0
0--00
-----

Generation = 1, Population = 16.
--10-
00-10
0-001
-001-
0--00

Generation = 2, Population = 11.
0-2--
-1-2-
1----
01120
----1

Generation = 3, Population = 12.
-0---
0-0-0
200-1
-----
000-2

Generation = 4, Population = 7.
----0
1-1-1
----2
-----
1-1--

Generation = 5, Population = 12.
0-201
-----
2-003
0-1-0
---0-

*** Life<FredkinCell> 5x5 ***

Generation = 0, Population = 8.
---00
00-0-
-----
-----
-0-00

Generation = 1, Population = 16.
000-1
11-1-
00-0-
-0-00
0--11

Generation = 2, Population = 12.
-110-
2202-
-1---
01-1-
--0--

Generation = 3, Population = 10.
--2-1
3-1-0
0----
1-0-0
0----

Generation = 4, Population = 12.
013-2
4-2-1
-1---
-----
100-1

Generation = 5, Population = 10.
----3
5-3-2
----0
1-0-0
2-1--

*** Life<FredkinCell> 5x5 ***

Generation = 0, Population = 7.
00---
--0--
-0--0
-----
0-0--

Generation = 1, Population = 13.
11---
00-00
0--0-
000-0
---0-

Generation = 2, Population = 11.
--000
1---1
-0-10
--1--
00---

Generation = 3, Population = 12.
111--
--00-
--02-
00--0
11---

Generation = 4, Population = 7.
2----
1-1-1
0----
-----
--0-0

Generation = 5, Population = 12.
311-0
-----
100-0
0-1-0
-1---

*** Life<FredkinCell> 5x5 ***

Generation = 0, Population = 9.
--0--
0---0
0-0--
0---0
-0--0

Generation = 1, Population = 15.
00-00
10-0-
---0-
1-001
--001

Generation = 2, Population = 5.
----1
-----
-0---
-----
00-1-

Generation = 3, Population = 10.
---0-
-0--0
0-0--
1--0-
11--1

Generation = 4, Population = 7.
-00--
-----
10--0
-----
-20--

Generation = 5, Population = 18.
0110-
1-0-0
2100-
1-0-1
1311-

*** Life<FredkinCell> 5x5 ***

Generation = 0, Population = 7.
0-0--
-0---
--0--
-----
0--00

Generation = 1, Population = 12.
-0-0-
--0--
---0-
0-000
-0011

Generation = 2, Population = 11.
0-0-0
---0-
0-01-
-0---
-112-

Generation = 3, Population = 11.
---0-
--01-
-01-0
-10--
0--31

Generation = 4, Population = 7.
---10
-----
0-21-
-----
---42

Generation = 5, Population = 15.
--021
0-0-0
--320
0-0-0
--153

*** Life<FredkinCell> 5x5 ***

Generation = 0, Population = 9.
----0
---00
---0-
000--
00---

Generation = 1, Population = 7.
----1
--0--
00-1-
-11--
-----

Generation = 2, Population = 9.
--00-
0---0
1---0
--2--
-00--

Generation = 3, Population = 20.
0011-
100-1
20011
0-300
01-0-

Generation = 4, Population = 13.
-122-
2-1-2
31-22
-----
-201-

Generation = 5, Population = 16.
-233-
3-2-3
-203-
0-3-0
03-20

*** Life<FredkinCell> 5x5 ***

Generation = 0, Population = 8.
-0-0-
0----
00---
---0-
-0--0

Generation = 1, Population = 11.
----0
10-0-
-100-
0-0--
0-0--

Generation = 2, Population = 13.
00---
2-01-
0-1-0
10---
1-10-

Generation = 3, Population = 17.
-1-0-
-0-2-
-120-
21000
20210

Generation = 4, Population = 13.
02-10
2-0-0
-231-
-----
-132-

Generation = 5, Population = 13.
-302-
3-1-1
-342-
-----
22-30

*** Life<FredkinCell> 5x5 ***

Generation = 0, Population = 9.
-0---
0--0-
0-0--
---00
---00

Generation = 1, Population = 9.
--00-
1---0
1--00
0----
--0--

Generation = 2, Population = 20.
0011-
20001
-001-
10000
00-0-

Generation = 3, Population = 11.
-12--
----2
11-20
--1-1
--01-

Generation = 4, Population = 18.
02310
2-0-3
22031
1-2-2
-0-2-

Generation = 5, Population = 7.
--4--
-----
3---2
2-3-3
--0--

*** Life<FredkinCell> 6x6 ***

Generation = 0, Population = 9.
0-----
---0--
---0-0
-00---
0----0
--0---

Generation = 1, Population = 16.
-0-0--
0-0100
-0-1--
-11---
----0-
00-0-0

Generation = 2, Population = 16.
--01-0
--1--1
-1-2-0
0-2-0-
0-0---
11--0-

Generation = 3, Population = 18.
-0-2-1
--210-
----01
1130--
-010--
-2-0-0

Generation = 4, Population = 24.
0-030-
--32-1
01-2-2
224--0
-12100
1301--

Generation = 5, Population = 14.
---41-
---302
---3--
---0--
02-2--
241--0

*** Life<FredkinCell> 6x6 ***

Generation = 0, Population = 8.
--0---
0-0-0-
------
------
---0-0
---0-0

Generation = 1, Population = 18.
00100-
--1--0
0-0-0-
---0-0
--01-1
--01-1

Generation = 2, Population = 16.
1-2-1-
----0-
--10-0
0-0101
-0-2--
-0---2

Generation = 3, Population = 16.
----20
0---1-
00---1
-0----
-103--
01010-

Generation = 4, Population = 18.
1--0-1
1--020
--1---
---1-1
-21---
121212

Generation = 5, Population = 20.
202122
20----
00-00-
-00---
---30-
232--3

*** Life<FredkinCell> 6x6 ***

Generation = 0, Population = 10.
0-----
0-0---
------
------
00---0
00-00-

Generation = 1, Population = 14.
100---
1--0--
0-0---
00---0
--00--
---11-

Generation = 2, Population = 14.
--1---
--0-0-
-0---0
-1000-
0-1--0
----20

Generation = 3, Population = 21.
-0200-
--1---
01000-
--1-10
-02-01
0-013-

Generation = 4, Population = 18.
113-10
10-0--
1-----
01-02-
-1301-
-0----

Generation = 5, Population = 19.
-24021
2-1--0
-1--0-
--1--0
-2-1-1
01-13-

*** Life<FredkinCell> 6x6 ***

Generation = 0, Population = 9.
0-----
0---0-
0-----
0--0--
--0---
--00--

Generation = 1, Population = 19.
10--0-
-0-0-0
-0-00-
10--0-
0010--
-0-10-

Generation = 2, Population = 12.
2-0---
---1--
------
-1-010
----0-
-10-10

Generation = 3, Population = 15.
------
0---0-
-0--00
1--121
--1--0
021--1

Generation = 4, Population = 15.
2---0-
---11-
0-0-1-
---232
--2---
1--112

Generation = 5, Population = 17.
-0--10
---220
------
1-0343
00-0--
-2-2-3

*** Life<FredkinCell> 6x6 ***

Generation = 0, Population = 9.
--0-00
------
0----0
-0-0--
0----0
------

Generation = 1, Population = 14.
-0--11
0-0-0-
---00-
0---0-
---00-
0----0

Generation = 2, Population = 14.
---0-2
-0-0--
---110
-0-0-0
--01--
-0-0--

Generation = 3, Population = 19.
-001--
0-----
--02--
0-0-01
-01200
0-010-

Generation = 4, Population = 12.
-1-21-
------
-0-3-0
-0----
01-3--
-0-2--

Generation = 5, Population = 17.
0--322
----00
01----
--0--1
12-40-
-1-30-

*** Life<FredkinCell> 6x6 ***

Generation = 0, Population = 10.
0-0-00
---0--
---0--
0----0
----0-
-0----

Generation = 1, Population = 19.
---011
0--1-0
0-0100
-0-0--
00-0--
0-0-0-

Generation = 2, Population = 17.
0-0---
10----
101---
010--0
--01--
10-0-0

Generation = 3, Population = 17.
10-0--
2-0---
2--1-0
-21-0-
-0--0-
2101--

Generation = 4, Population = 18.
-10-1-
-0-1-0
3-1-0-
--201-
--0-10
32-2--

Generation = 5, Population = 18.
1-10--
-1----
-02-1-
023-2-
0-1--1
430--0

*** Life<FredkinCell> 6x6 ***

Generation = 0, Population = 10.
0---00
00----
-0----
------
0-----
-00--0

Generation = 1, Population = 17.
1--011
--0-00
-10---
00----
--0--0
-1100-

Generation = 2, Population = 19.
-0-12-
0-10--
---000
1-0--0
001---
022-1-

Generation = 3, Population = 21.
--0-31
-02100
--0---
201--1
112000
-3---0

Generation = 4, Population = 16.
--11--
01--1-
01--0-
-12--2
--3--1
-4-0-1

Generation = 5, Population = 16.
1-22--
----20
-2-01-
---0-3
-14-0-
0-2--2

*** Life<FredkinCell> 6x6 ***

Generation = 0, Population = 8.
--0---
----0-
------
0-00-0
-----0
-----0

Generation = 1, Population = 20.
-0-00-
--00-0
0-0000
--11-1
0-000-
----01

Generation = 2, Population = 17.
0-0-1-
0--1-1
--1--1
-022-2
---1-0
0-0--2

Generation = 3, Population = 20.
1--0--
100-02
0-200-
013---
0002--
----03

Generation = 4, Population = 19.
2----0
2----3
--3---
12420-
-113-0
000-14

Generation = 5, Population = 23.
30--11
300-04
--4-01
23-31-
02---1
11-02-

*** Life<FredkinCell> 6x6 ***

Generation = 0, Population = 8.
----0-
-0----
-----0
--0---
---0--
-00--0

Generation = 1, Population = 20.
-0-0-0
0-0-00
-00-0-
-0---0
-00-00
011-0-

Generation = 2, Population = 15.
--0-01
--10--
----10
0-0-01
-1----
12--1-

Generation = 3, Population = 17.
-01012
-0-10-
0-----
-0----
02---0
2-10-0

Generation = 4, Population = 21.
0--123
-11---
-0-01-
010--1
---001
3221-1

Generation = 5, Population = 18.
---2-4
--21-0
---12-
121002
--0--2
4---12

*** Life<FredkinCell> 6x6 ***

Generation = 0, Population = 6.
0---0-
------
---0--
--0---
-----0
---0--

Generation = 1, Population = 15.
-0-0-0
0--00-
----0-
-0---0
--000-
--0-00

Generation = 2, Population = 14.
---10-
--0---
00--1-
0--00-
-----0
-010-1

Generation = 3, Population = 18.
---210
0-----
-1--20
1-01--
000--1
01-1-2

Generation = 4, Population = 17.
0-03-1
---0--
0---31
2--2--
11-002
--1--3

Generation = 5, Population = 14.
--1---
---1--
11-042
--030-
-20---
0----4

*** Life<FredkinCell> 6x6 ***

Generation = 0, Population = 7.
--00--
------
-----0
-0----
0----0
---0--

Generation = 1, Population = 16.
-0110-
--00-0
-0--0-
--0---
---00-
0-0-00

Generation = 2, Population = 13.
01221-
-0----
0-0---
------
0-01--
---0-1

Generation = 3, Population = 17.
12--20
01000-
-0-0--
---0--
--1-00
0--1--

Generation = 4, Population = 13.
-----1
---1--
-10---
-0-1-0
00--11
-0---1

Generation = 5, Population = 20.
---22-
-1--00
0-10-0
--0-01
111-22
-10--2

*** Life<FredkinCell> 6x6 ***

Generation = 0, Population = 9.
----00
0----0
-0-0--
------
-----0
0-0---

Generation = 1, Population = 15.
0--01-
---0-1
----00
-0-0-0
0-0-0-
---0-0

Generation = 2, Population = 17.
-00-2-
0-01-2
-0-011
--0--1
-0---0
0---0-

Generation = 3, Population = 7.
-1-0--
-----3
-----2
-0----
-----1
---0--

Generation = 4, Population = 18.
0---20
-0-104
-0--13
0-0---
-0-00-
--0-00

Generation = 5, Population = 8.
------
-1-2-5
-1----
-----1
---1--
---0-1

*** Life<FredkinCell> 6x6 ***

Generation = 0, Population = 8.
-0----
---0--
----00
-0----
--0---
-0---0

Generation = 1, Population = 17.
0-00--
-00--0
-0--11
0---00
-0-0-0
0---0-

Generation = 2, Population = 12.
-0-100
-----1
-1-0-2
-0---1
0----1
------

Generation = 3, Population = 12.
0--2--
------
02----
-1000-
----02
0----0

Generation = 4, Population = 13.
-00-0-
-0-0--
1--01-
------
000---
-0---1

Generation = 5, Population = 22.
0-12-0
-1010-
--0-22
-1000-
1110-2
-1--0-

*** Life<FredkinCell> 6x6 ***

Generation = 0, Population = 9.
--00--
---00-
------
-0----
----0-
-0--00

Generation = 1, Population = 16.
-01---
----10
-0-00-
0-0-0-
---01-
0-00-1

Generation = 2, Population = 16.
012000
--0--1
--011-
-0---0
--0---
--1-0-

Generation = 3, Population = 18.
1-3---
0--012
----20
0-00--
--1010
-02--1

Generation = 4, Population = 16.
2---00
10-12-
--01--
----0-
0-21--
01---2

Generation = 5, Population = 18.
3----1
-10---
0-1-2-
0--0-0
1032-0
-2-00-

*** Life<FredkinCell> 6x6 ***

Generation = 0, Population = 9.
0-0-0-
0---0-
--0---
------
---0--
0----0

Generation = 1, Population = 21.
1---10
10-010
00-00-
--00--
0-0-00
-0-00-

Generation = 2, Population = 11.
2-----
2-----
--01--
----00
-01--1
--01--

Generation = 3, Population = 19.
30----
3000--
0012-0
-0--1-
01---2
---200

Generation = 4, Population = 18.
---0--
4-1-10
--2-0-
0----0
1-1003
0003--

Generation = 5, Population = 18.
3----0
--20-1
-03-10
10-011
-1-1--
--1--0

*** Life<FredkinCell> 6x6 ***

Generation = 0, Population = 8.
---00-
--0---
------
------
--0---
0-000-

Generation = 1, Population = 13.
---110
-0--0-
--0---
--0---
001-0-
----10

Generation = 2, Population = 20.
-00221
0---1-
--100-
0--00-
1---1-
0000-1

Generation = 3, Population = 18.
-1--32
---0--
-02110
10--10
--102-
---11-

Generation = 4, Population = 17.
0-0-43
---11-
---22-
2-002-
1-213-
-----1

Generation = 5, Population = 16.
---2-4
0---2-
0--330
3---30
2--2--
0-01--

*** Life<FredkinCell> 6x6 ***

Generation = 0, Population = 9.
00----
---0--
-0-0--
----0-
------
-00-0-

Generation = 1, Population = 18.
1100--
0-010-
0--1--
-0---0
-00---
011--0

Generation = 2, Population = 16.
--1---
-0--10
1--2-0
-1-00-
-1-0--
12-00-

Generation = 3, Population = 15.
---000
----2-
-003-1
-2-11-
----0-
2---10

Generation = 4, Population = 18.
--1111
-00130
1-----
030---
01----
-2-0-1

Generation = 5, Population = 19.
---22-
-1124-
20-301
1411--
-2-0-0
-3----

*** Life<FredkinCell> 6x6 ***

Generation = 0, Population = 10.
------
0-----
-0----
-000-0
0---0-
-00---

Generation = 1, Population = 11.
0-----
------
-1-0-0
---10-
-0----
-1100-

Generation = 2, Population = 15.
-0----
00-0-0
0--10-
--0-1-
01----
0---10

Generation = 3, Population = 16.
-100-0
---10-
1-----
---120
-2---0
1--021

Generation = 4, Population = 16.
02--0-
00--1-
-1---0
0002--
--0-0-
--11--

Generation = 5, Population = 19.
--0010
-1012-
1--1--
1113-0
0----0
-1-2--

*** Life<FredkinCell> 6x6 ***

Generation = 0, Population = 8.
-----0
0--00-
------
------
-----0
--000-

Generation = 1, Population = 15.
0--0--
-0011-
0--00-
-----0
--00--
-01-1-

Generation = 2, Population = 12.
---1--
01---0
------
0-0---
---1-0
01-0-0

Generation = 3, Population = 21.
000-00
12011-
-00--0
-----0
-0-2-1
12-1-1

Generation = 4, Population = 13.
-1-1-1
-----0
-----1
--000-
-1-3--
2--2-2

Generation = 5, Population = 15.
0----2
-2-11-
--00-2
--111-
--0--1
--13--

*** Life<FredkinCell> 6x6 ***

Generation = 0, Population = 9.
00----
0-0---
----0-
--0-0-
-0----
---0--

Generation = 1, Population = 17.
-1----
10-00-
0--010
----10
0--00-
-00-0-

Generation = 2, Population = 15.
-2000-
------
1-0---
---02-
---11-
-11010

Generation = 3, Population = 19.
03--10
10-00-
----1-
0----0
-0-22-
02-121

Generation = 4, Population = 14.
--0--1
---11-
-0--2-
---02-
01---0
1---32

Generation = 5, Population = 18.
-3----
-0-2--
1-00-0
0-01--
-20221
2--14-

*** Life<FredkinCell> 6x6 ***

Generation = 0, Population = 9.
0--0--
------
-00---
------
0--00-
--00--

Generation = 1, Population = 22.
-00-0-
0000--
0110--
00000-
-0--10
001---

Generation = 2, Population = 15.
---0-0
------
1--1--
--11--
0-0--1
112000

Generation = 3, Population = 14.
--0---
0----0
-1-20-
-0--00
10-0-2
--3---

Generation = 4, Population = 17.
00-0-0
--00--
-2-3-0
--11--
2-0-13
1----0

Generation = 5, Population = 19.
1101--
00110-
1-----
0-----
3-102-
213--1

*** Life<FredkinCell> 6x6 ***

Generation = 0, Population = 9.
---0-0
---0--
00---0
-0---0
------
---0--

Generation = 1, Population = 21.
--01--
00010-
1-0001
-10-01
-0-0-0
--0-0-

Generation = 2, Population = 9.
0-----
------
2-11--
-----2
01---1
---0--

Generation = 3, Population = 23.
-0----
--01--
--2201
-10003
120002
000-00

Generation = 4, Population = 10.
0--1--
-----0
--3-1-
-----4
---1-3
-1-0--

Generation = 5, Population = 20.
-00-00
0-01--
-0---1
--00-5
-202-4
0--100

*** Life<FredkinCell> 6x6 ***

Generation = 0, Population = 9.
00-00-
----0-
------
--00--
0---0-
------

Generation = 1, Population = 20.
11-1-0
00--10
--000-
0011--
-00--0
0---0-

Generation = 2, Population = 11.
----01
---0--
-0-1--
11---0
0-----
--00--

Generation = 3, Population = 22.
----12
-001-0
-1-200
--110-
1-00-0
00110-

Generation = 4, Population = 17.
-10-2-
0-----
02-31-
1----0
2011--
--221-

Generation = 5, Population = 19.
-21--2
1001--
13-42-
-11---
--2--0
0--320

*** Life<FredkinCell> 6x6 ***

Generation = 0, Population = 9.
---0--
----0-
-00---
----0-
0---00
0-----

Generation = 1, Population = 21.
--0---
-00--0
0110--
00001-
10-0-1
10--00

Generation = 2, Population = 16.
--10-0
--1-0-
-----0
1-1-2-
2101-2
--0-1-

Generation = 3, Population = 18.
-0-10-
-020-0
0---0-
2020-0
---2--
1-10--

Generation = 4, Population = 15.
011-1-
------
11-0-0
----2-
-10-02
--2-1-

Generation = 5, Population = 20.
1-2--0
--2000
22--0-
2-2-30
22--13
--3-2-

*** Life<FredkinCell> 6x6 ***

Generation = 0, Population = 10.
0-----
--00--
------
-0--0-
-000-0
0-----

Generation = 1, Population = 19.
-000--
00110-
-0000-
01----
---10-
--00-0

Generation = 2, Population = 15.
--1---
1----0
0111-0
1-----
00--1-
-01-0-

Generation = 3, Population = 22.
00-0-0
2--101
1--2-1
-10000
---120
--2-10

Generation = 4, Population = 16.
-1-101
--12-2
2-----
-2--11
-00--1
-0-0--

Generation = 5, Population = 21.
0-1---
2-2-03
--120-
-3-02-
011--2
012-10

*** Life<FredkinCell> 6x6 ***

Generation = 0, Population = 10.
--0---
-----0
-00---
----0-
0---0-
0---00

Generation = 1, Population = 24.
-0-0-0
-0--0-
011000
000010
10-0--
10-0-1

Generation = 2, Population = 15.
01--0-
---010
--21--
1-1-2-
210---
---1--

Generation = 3, Population = 20.
120-1-
00--21
01--00
20-0-0
----0-
10--0-

Generation = 4, Population = 19.
-31-2-
11-03-
122--1
-----1
----1-
210111

Generation = 5, Population = 21.
--2030
-2-1--
-33--2
201--2
210-20
3---22

*** Life<FredkinCell> 6x6 ***

Generation = 0, Population = 8.
-00---
------
-0----
--0---
--0---
---000

Generation = 1, Population = 14.
0110--
--0---
0-----
--10--
-01-00
---1-1

Generation = 2, Population = 16.
1-210-
--1---
-0-0--
0--1-0
01--1-
-0--02

Generation = 3, Population = 22.
----10
0-200-
--0100
10120-
--1-20
-101-3

Generation = 4, Population = 20.
1-2--1
---110
--1--1
2--310
01----
021204

Generation = 5, Population = 14.
-----2
0-22-1
00-10-
3--4--
1-----
-3---5

*** Life<FredkinCell> 6x6 ***

Generation = 0, Population = 7.
-00---
-0----
---0--
---00-
0-----
------

Generation = 1, Population = 17.
0-10--
01-0--
-001--
0-0-10
-0-00-
0-----

Generation = 2, Population = 15.
102-0-
----0-
0-1--0
--1--1
0-01--
---00-

Generation = 3, Population = 17.
2-3-10
-1-01-
--21-1
-0--12
-----0
0---10

Generation = 4, Population = 16.
-0-0-1
-----0
-03--2
0---23
00--0-
-0-02-

Generation = 5, Population = 16.
2----2
--001-
-141--
1010--
--0---
-1-1-0

*** Life<FredkinCell> 6x6 ***

Generation = 0, Population = 10.
----0-
-0-0-0
-0-0--
0--0--
-----0
0-----

Generation = 1, Population = 16.
-0----
01-10-
-1--00
--0100
---00-
-0---0

Generation = 2, Population = 17.
-1000-
12-2--
-2-01-
--12--
-0---0
0-00--

Generation = 3, Population = 22.
---110
230-0-
-30120
-02--0
--0-0-
-01100

Generation = 4, Population = 23.
01-221
34---0
-4--3-
0-3-01
-0-010
012-11

Generation = 5, Population = 21.
---3--
-50201
05-140
---21-
01-1-1
1231--

*** Life<FredkinCell> 6x6 ***

Generation = 0, Population = 8.
------
--000-
-0-0--
0-----
0-----
-----0

Generation = 1, Population = 16.
--000-
--1110
--01--
1--0--
10---0
0---0-

Generation = 2, Population = 20.
-0-1--
-02-21
00-2-0
2--100
2100--
1--0--

Generation = 3, Population = 17.
010--0
-13-3-
--03--
-0-2--
3--1-0
2--10-

Generation = 4, Population = 16.
12-1--
--41--
-0----
--0-00
4-0-0-
300-1-

Generation = 5, Population = 21.
23020-
015-3-
0-0300
2-1--1
51----
----20

*** Life<FredkinCell> 6x6 ***

Generation = 0, Population = 8.
0-0---
------
------
00-0-0
----0-
--0---

Generation = 1, Population = 16.
---0--
0-0---
00-0-0
11--0-
000---
-0-00-

Generation = 2, Population = 17.
0---0-
10-0-0
1-0-0-
22----
--1---
-10110

Generation = 3, Population = 17.
1-----
210---
---0--
-30-0-
002-00
021--1

Generation = 4, Population = 11.
2-0---
--1---
1-0---
---01-
--3---
-3-1-2

Generation = 5, Population = 16.
--10--
-1-0--
--1-0-
2-0120
---000
0-1---

*** Life<FredkinCell> 6x6 ***

Generation = 0, Population = 10.
0-0---
-00---
------
----0-
----00
--0-00

Generation = 1, Population = 14.
-010--
-1-0--
-00-0-
---01-
--001-
-0----

Generation = 2, Population = 18.
0---0-
0--1--
0-1-10
-00-20
--11-0
0--00-

Generation = 3, Population = 18.
10---0
-1--00
1020--
-110-1
0----1
-0--1-

Generation = 4, Population = 16.
2-1--1
0---1-
2-3---
0-2--2
-011-2
--00--

Generation = 5, Population = 16.
3--0--
-1-1--
--4010
11--23
-1---3
----10

*** Life<FredkinCell> 6x6 ***

Generation = 0, Population = 8.
0-----
------
-0--0-
-----0
--0---
0-00--

Generation = 1, Population = 15.
-0----
00--0-
0-00--
-00---
001--0
---10-

Generation = 2, Population = 15.
-10-0-
-----0
1--1--
0-1--0
11----
00-21-

Generation = 3, Population = 19.
021---
0000--
20--0-
-0--0-
2--000
---320

Generation = 4, Population = 14.
-3----
1-11--
-1--10
011---
--1---
0-0-3-

Generation = 5, Population = 18.
---0--
--22-0
220-21
12-000
---00-
--1--0

*** Life<FredkinCell> 6x6 ***

Generation = 0, Population = 10.
------
0-----
-0-0--
-----0
-0000-
0----0

Generation = 1, Population = 10.
0-----
---0--
----00
--0---
-1--10
--00--

Generation = 2, Population = 16.
-0-0--
0-0--0
--0-11
---0--
0-0-21
--11-0

Generation = 3, Population = 21.
--0-00
-01--1
00102-
0-0-0-
--1-3-
00-201

Generation = 4, Population = 18.
--1-1-
--2-02
-1----
10-0-0
--20--
111312

Generation = 5, Population = 17.
-02-2-
--3--3
-2-02-
2-01--
-1-1--
2-24-3

*** Life<FredkinCell> 6x6 ***

Generation = 0, Population = 9.
-0---0
---0--
-0----
---0-0
-0----
0--0--

Generation = 1, Population = 15.
0-000-
--0-00
0-0--0
--0---
--0--0
--0-0-

Generation = 2, Population = 11.
------
-0-0--
---0-1
00-0--
-0-0--
-01---

Generation = 3, Population = 16.
-0-0--
0--100
0-0---
1---00
--010-
0-2---

Generation = 4, Population = 10.
---1-0
1----1
------
20---1
-0----
--3-0-

Generation = 5, Population = 15.
0-0--1
-0-102
-0----
3-0-0-
-1--00
-----0

*** Life<FredkinCell> 6x6 ***

Generation = 0, Population = 9.
-00--0
-00--0
--0---
-0----
-----0
------

Generation = 1, Population = 18.
0--001
0-1001
-010-0
0----0
-0--0-
-----0

Generation = 2, Population = 19.
10--1-
10--12
012-0-
-000-1
--00-0
-0----

Generation = 3, Population = 18.
--002-
21-023
---010
----02
-0---1
0--0-0

Generation = 4, Population = 17.
1-11--
3211--
012--1
-0---3
--00--
--0--1

Generation = 5, Population = 19.
20--2-
43--23
----12
-10004
---10-
-01-0-

*** Life<FredkinCell> 6x6 ***

Generation = 0, Population = 8.
------
----0-
-----0
000---
-----0
-0-0--

Generation = 1, Population = 15.
----0-
---0--
000---
1-10--
0-000-
0---00

Generation = 2, Population = 11.
-----0
00----
---0--
-02---
---1--
100--1

Generation = 3, Population = 21.
00--0-
1100-0
0---0-
1130--
0-0-00
2-1-0-

Generation = 4, Population = 16.
------
22-1--
-0-0--
2-4100
-0-1-1
3-2-1-

Generation = 5, Population = 16.
00-0--
3--20-
010--0
--5---
0--2-2
-0-0--

*** Life<FredkinCell> 6x6 ***

Generation = 0, Population = 9.
0---0-
0----0
------
-----0
-----0
---000

Generation = 1, Population = 11.
10-0--
10----
0-----
----01
---0--
--01--

Generation = 2, Population = 15.
----0-
2-00--
1---00
0---12
---1-0
-01-0-

Generation = 3, Population = 20.
1-0--0
3-1100
-00---
10---3
00---1
0121--

Generation = 4, Population = 20.
2-1--1
402---
1---0-
-1--14
11-102
-2-200

Generation = 5, Population = 23.
30200-
5--100
20001-
120-2-
22---3
-3--1-

*** Life<FredkinCell> 6x6 ***

Generation = 0, Population = 9.
------
------
----0-
-00---
-0-00-
00---0

Generation = 1, Population = 13.
------
----0-
-000-0
0-1---
--011-
1-00--

Generation = 2, Population = 16.
----0-
-00---
-1110-
-0-000
-01220
------

Generation = 3, Population = 19.
-000-0
0-----
0222--
0--1--
0--33-
-00000

Generation = 4, Population = 13.
-1-1--
10---0
1---0-
------
1--4--
-1-111

Generation = 5, Population = 13.
-2--00
--00--
2--2--
---10-
--15-0
-----2

*** Life<FredkinCell> 6x6 ***

Generation = 0, Population = 6.
--00--
----0-
------
------
------
0-0--0

Generation = 1, Population = 11.
-011--
--0--0
----0-
------
0-0--0
---00-

Generation = 2, Population = 16.
012200
--1---
--00--
0-0-00
------
0--11-

Generation = 3, Population = 24.
1-3--1
0--000
0011-0
--1011
--00-0
-00220

Generation = 4, Population = 15.
2----2
--1--1
--22--
0-2--2
--11--
0113--

Generation = 5, Population = 22.
-13-03
002-02
00330-
---01-
--2-00
1-2-2-

*** Life<FredkinCell> 7x7 ***

Generation = 0, Population = 9.
0-0----
0--0---
----0--
----0--
00-----
0------
-------

Generation = 1, Population = 16.
1------
10-----
0---10-
00-010-
-10-0--
1------
0------

Generation = 2, Population = 20.
2------
210-00-
-0----0
--01--0
0-101--
2-0-0--
10-----

Generation = 3, Population = 28.
3-0-00-
-21-11-
-1001-1
0----01
1-21-00
-01010-
-1--0--

Generation = 4, Population = 20.
-01---0
--202--
--1---2
1-----2
21--11-
--212--
12--1--

Generation = 5, Population = 26.
31--00-
--3-31-
012-103
2-0-1-3
-2---2-
-03-3--
23--20-

*** Life<FredkinCell> 7x7 ***

Generation = 0, Population = 9.
-------
0-0----
----0--
----0-0
------0
0------
-0----0

Generation = 1, Population = 19.
0-0----
---00--
0-00100
---01-1
0---001
-------
--0--0-

Generation = 2, Population = 14.
----0--
--0---0
--1----
----2--
-0-----
0-0-0-0
-0-00-0

Generation = 3, Population = 25.
--00-00
-01000-
-0201-0
-000-0-
------1
---01-1
--01--1

Generation = 4, Population = 20.
----0-1
0---1-0
01-----
0-1-2-1
-00-0-2
----2--
-01--02

Generation = 5, Population = 24.
0--01-2
1--02-1
12-----
1-2-3-2
-1----3
---03--
0121-13

*** Life<FredkinCell> 7x7 ***

Generation = 0, Population = 8.
---00--
-0-0---
---0---
-----0-
-------
----0--
-0-----

Generation = 1, Population = 21.
-00-10-
0------
-00100-
---00-0
----00-
-0-0-0-
0-0-0--

Generation = 2, Population = 20.
-11-210
-0-0---
-1-211-
-0--1--
-0-0---
--0--10
-0-0---

Generation = 3, Population = 33.
0-203-1
0-010-0
0---220
0-002--
010--00
-0-0021
0-0-000

Generation = 4, Population = 22.
1--1--2
---210-
-1-23--
-0---0-
-2-00--
01-11-2
-0-0-1-

Generation = 5, Population = 24.
-122---
000321-
02---2-
0-0-2-0
------0
12-2-2-
-1-10--

*** Life<FredkinCell> 7x7 ***

Generation = 0, Population = 6.
---00--
-------
-------
-----0-
0----0-
------0
-------

Generation = 1, Population = 16.
--0110-
---00--
-----0-
0---010
-0--01-
0------
------0

Generation = 2, Population = 21.
-012210
-----0-
0--001-
---0--1
0-00---
----000
0----0-

Generation = 3, Population = 18.
01---21
000-0--
-00----
-------
--1--1-
--0-111
-0---1-

Generation = 4, Population = 16.
-----32
------0
---00--
-0---1-
-020-2-
--1-2-2
0----2-

Generation = 5, Population = 24.
----24-
---00-1
-0011-0
01---21
0-3103-
0-20---
-00----

*** Life<FredkinCell> 7x7 ***

Generation = 0, Population = 9.
--00---
-00--0-
-------
----0--
--0----
-----0-
0------

Generation = 1, Population = 24.
---100-
01--0-0
-00-00-
--00-0-
-0-000-
0-0-0-0
-0---0-

Generation = 2, Population = 13.
000211-
1------
---0---
-0----0
----1--
---01--
-------

Generation = 3, Population = 25.
-----20
2-0-00-
000-0-0
0-0000-
-0--200
--01-0-
---00--

Generation = 4, Population = 18.
0-0---1
311---0
1-10---
1-----0
--00--1
--1--1-
----1--

Generation = 5, Population = 26.
1012-22
4-2--01
-0-10--
20---01
00-12-2
-02----
--00---

*** Life<FredkinCell> 7x7 ***

Generation = 0, Population = 9.
00-0---
----0-0
000----
-------
-------
------0
-------

Generation = 1, Population = 15.
11----0
--0----
1-100-0
000----
------0
-----0-
------0

Generation = 2, Population = 15.
22---0-
--1-0--
202-1--
----0--
000----
----0-0
-------

Generation = 3, Population = 21.
33----0
-02-1--
3----0-
---010-
1-10--0
0000---
----0-0

Generation = 4, Population = 18.
4---00-
0-3---0
--20110
-------
20-1---
--1----
000----

Generation = 5, Population = 26.
530011-
1-4--01
30-----
000-100
311-0--
-02----
1--0---

*** Life<FredkinCell> 7x7 ***

Generation = 0, Population = 10.
0---0--
----0--
--0----
-------
---00--
---00--
-----00

Generation = 1, Population = 22.
-0-010-
0-0010-
-0-00--
--000--
--0--0-
--0---0
---0-11

Generation = 2, Population = 14.
--0-2-0
--1---0
---11--
---1---
-0-----
-01--01
-----2-

Generation = 3, Population = 27.
-01---1
-02--01
----200
-002---
01-0-00
0-200-2
-00-03-

Generation = 4, Population = 16.
0--0--2
0--0--2
----31-
-------
----01-
1--1--3
-1-0-4-

Generation = 5, Population = 22.
1011203
1021--3
0---42-
-------
0---12-
--22-0-
---1---

*** Life<FredkinCell> 7x7 ***

Generation = 0, Population = 9.
-------
--00---
----00-
--0----
0---0--
------0
---0---

Generation = 1, Population = 25.
--00---
-011-0-
----110
00-0-0-
-000-00
0--000-
--0-0-0

Generation = 2, Population = 30.
----00-
012-01-
0-002-1
1-010-0
0--1011
--0-1-0
00-010-

Generation = 3, Population = 26.
0000--0
---11--
-011312
----10-
100---2
------1
110121-

Generation = 4, Population = 22.
1----0-
0-22---
01-2-23
1-----0
2-110-3
---01-2
2----2-

Generation = 5, Population = 24.
20000-0
-13-1-0
1213-3-
--0-1--
3-22---
-----03
-1-1---

*** Life<FredkinCell> 7x7 ***

Generation = 0, Population = 9.
0---00-
-------
-----0-
-0-----
------0
-0---00
-------

Generation = 1, Population = 22.
-0-0110
0---0--
-0--0-0
0-0--00
------1
0-0-01-
-0---00

Generation = 2, Population = 20.
---12-1
-0-----
0--0101
-0-0-11
----002
-0--1-0
------1

Generation = 3, Population = 23.
-0023--
--0--0-
-00--1-
---1-22
-----13
0-0021-
-0--002

Generation = 4, Population = 22.
011-4--
-0---10
01--1--
-0---3-
0-0--2-
-01-320
-----13

Generation = 5, Population = 24.
122---1
0---021
1200-11
01---42
--10---
-1--4--
-00----

*** Life<FredkinCell> 7x7 ***

Generation = 0, Population = 9.
---0--0
-------
-------
-00----
--00---
------0
0--0---

Generation = 1, Population = 19.
--0-00-
---0--0
-00----
01-----
---10-0
0-0--0-
-00-0-0

Generation = 2, Population = 22.
-0-011-
-00----
--1---0
1--00-0
-0-210-
-01-0-0
-1---0-

Generation = 3, Population = 28.
0101-20
0---000
0-2-001
-----01
-10--10
01201--
02-----

Generation = 4, Population = 14.
---21--
------1
1-----2
11---12
-------
--3-2-0
---00--

Generation = 5, Population = 26.
--03220
0--0002
2------
-20-02-
010-11-
-1-03--
---1-00

*** Life<FredkinCell> 7x7 ***

Generation = 0, Population = 9.
---000-
---0---
-------
-------
-----0-
0----00
------0

Generation = 1, Population = 15.
--0--10
--01-0-
---0---
-----0-
0---01-
-0--0--
0-----1

Generation = 2, Population = 21.
-01-0-1
-0---1-
---10--
0--0-10
---0--0
0-001-0
----00-

Generation = 3, Population = 24.
0-2--1-
01-10--
000-100
-00-02-
-------
--11-01
0-0--1-

Generation = 4, Population = 22.
10----1
1--2-10
---1211
-------
-0-00-0
00-2--2
--1-02-

Generation = 5, Population = 26.
-120--2
2-030-1
0-0--2-
-0---2-
-1--1-1
1-131-3
0--013-

*** Life<FredkinCell> 7x7 ***

Generation = 0, Population = 8.
-------
----0--
----0-0
0-0-0--
-------
-------
----00-

Generation = 1, Population = 20.
----0--
---0100
0-00---
----100
0-0-0--
----00-
---0110

Generation = 2, Population = 18.
----1-0
0---2-1
--1-0--
------1
-----00
0-0-1--
--01221

Generation = 3, Population = 26.
0--02-1
-000--2
00--10-
--0-1-2
0-0--1-
--1020-
00--3-2

Generation = 4, Population = 18.
----3-2
0---2-3
1-1--10
--1-2--
----02-
----3--
11--42-

Generation = 5, Population = 36.
0--04-3
100030-
2-2012-
002-302
--00130
00-0-0-
2201-32

*** Life<FredkinCell> 7x7 ***

Generation = 0, Population = 9.
0-0----
---0-0-
--0----
-0---0-
-------
------0
---0---

Generation = 1, Population = 15.
-----0-
0-0---0
-------
0---0-0
-0---00
---0-0-
--0-0-0

Generation = 2, Population = 18.
0-0-0--
---0---
--0-0--
---0-01
--00---
-0--010
-0-0-0-

Generation = 3, Population = 23.
---0-0-
0-0-0--
-0----0
--01012
--1----
01-0121
01--01-

Generation = 4, Population = 18.
0---0-0
-0-0--0
--00--1
-------
0-20---
--01232
--0----

Generation = 5, Population = 22.
------1
--01-0-
--1-002
0-----2
-----00
0112--3
-11-010

*** Life<FredkinCell> 7x7 ***

Generation = 0, Population = 7.
-------
---0---
-0-----
-----0-
------0
----0--
---0--0

Generation = 1, Population = 14.
---0---
-00-0--
0-00-0-
-0--0--
----0--
-----0-
--0--0-

Generation = 2, Population = 16.
-0-----
-1-----
---1--0
----1--
-0-01--
--0--10
-0-0010

Generation = 3, Population = 27.
010----
0200--0
-00--0-
-0-0200
0-01--0
-0-00--
0-01-2-

Generation = 4, Population = 22.
-2----0
---10--
-1-1-10
-1---1-
--121-1
0--11-0
-01-0-0

Generation = 5, Population = 28.
0-0000-
--0-1--
02-20-1
02---20
0-23-02
--0-2--
-1211-1

*** Life<FredkinCell> 7x7 ***

Generation = 0, Population = 9.
0-0-0--
-0----0
0------
-------
--0----
-00----
-------

Generation = 1, Population = 16.
-0---00
0---00-
------0
0-0----
--10---
01-0---
-00----

Generation = 2, Population = 14.
--0---1
---01-0
--0-0--
--1---0
----0--
1--10--
--1----

Generation = 3, Population = 27.
-0--002
--01--1
-01010-
-020-0-
0-1-100
-1-2-0-
00--0--

Generation = 4, Population = 16.
0---1--
-0--102
0------
-------
--2-2-1
120--1-
1-1----

Generation = 5, Population = 24.
---02-2
0-01--3
----100
0-2-0-0
0-3--0-
--12---
2020-0-

*** Life<FredkinCell> 7x7 ***

Generation = 0, Population = 10.
--0--00
-0-00--
----00-
0---0--
-------
-------
-------

Generation = 1, Population = 17.
-----11
0-01-00
00--110
-0-01--
0---0--
-------
-------

Generation = 2, Population = 22.
0-000--
1012011
---0-2-
01-12-0
----10-
0---0--
-------

Generation = 3, Population = 20.
10-1--1
--2-122
-----30
12-----
-0--21-
-0-01--
0---0--

Generation = 4, Population = 24.
210---2
1--2233
000----
2-0-2-0
--0--20
-1-12--
----10-

Generation = 5, Population = 24.
--1-0-3
-023---
1----3-
32---01
0-1-23-
0-02-00
-0---10

*** Life<FredkinCell> 7x7 ***

Generation = 0, Population = 9.
-00---0
-----0-
---0---
----0--
------0
-------
----00-

Generation = 1, Population = 21.
0110---
-0000--
--0--0-
-----00
----00-
----000
---0110

Generation = 2, Population = 18.
122----
---11--
--1--1-
--0--11
---0-10
----1--
--0122-

Generation = 3, Population = 26.
2-3-0--
00022--
-02--2-
-01-02-
----0--
--00200
-01-330

Generation = 4, Population = 22.
324010-
-1-----
-13-030
0-----1
-0---10
-----1-
01-1-4-

Generation = 5, Population = 22.
43---10
--02--0
--4-1--
-01-02-
--0-0--
0--02--
12---50

*** Life<FredkinCell> 7x7 ***

Generation = 0, Population = 10.
00-----
-0-----
----0--
---000-
---0---
--0----
---0---

Generation = 1, Population = 16.
1-0----
-10-0--
-0--1--
--0-110
---1-0-
-0-0---
----0--

Generation = 2, Population = 23.
-0100--
----10-
0100--0
---0-21
-0-201-
0--1-0-
-0---0-

Generation = 3, Population = 22.
11-----
0--0-1-
1----01
0---1--
---3-2-
-0020-0
--00010

Generation = 4, Population = 22.
-210-0-
--0--2-
-1-0--2
10---21
00-4---
011---1
---11--

Generation = 5, Population = 36.
1321-10
-11013-
-20-103
-10-13-
110-02-
-22200-
00-2210

*** Life<FredkinCell> 7x7 ***

Generation = 0, Population = 9.
------0
-0-----
----0--
-0-----
-----0-
-0---0-
0----0-

Generation = 1, Population = 21.
-0---0-
0-0-0-0
---0-0-
0-0-00-
----010
--0-0-0
----010

Generation = 2, Population = 13.
-------
-0-0---
--0--1-
---0-1-
0--012-
-0-----
--00---

Generation = 3, Population = 21.
-0-0---
0-0-00-
---0020
0--10-0
--0---0
----00-
--110--

Generation = 4, Population = 12.
--0--0-
-0-----
-----3-
-0---1-
00----1
-----1-
-02----

Generation = 5, Population = 22.
---00-0
0------
----040
-10-02-
1-0--2-
0-0-0--
0131-1-

*** Life<FredkinCell> 7x7 ***

Generation = 0, Population = 9.
---0---
-------
00-----
-000---
-------
-0-0---
------0

Generation = 1, Population = 16.
--0-0--
00-0---
1--0---
---10--
--0----
0---0-0
-0-0-0-

Generation = 2, Population = 17.
0--0-0-
-101---
2-0----
0---10-
00----0
--0--0-
----0--

Generation = 3, Population = 23.
---1--0
021-00-
301-00-
--0121-
-1--00-
0--0---
--00---

Generation = 4, Population = 22.
00-----
-3-1---
-120110
00---20
---0--0
---1-0-
001-0--

Generation = 5, Population = 26.
1-01---
--12-00
-2-1-2-
1-----1
0101001
00-20--
1-20---
